^C:\USERS\BOLDY\SOURCE\REPOS\SKILLBOX\DEBUG\SKILLBOX.OBJ
C:\USERS\BOLDY\SOURCE\REPOS\SKILLBOX\DEBUG\SKILLBOX.EXE
C:\USERS\BOLDY\SOURCE\REPOS\SKILLBOX\DEBUG\SKILLBOX.ILK
C:\USERS\BOLDY\SOURCE\REPOS\SKILLBOX\DEBUG\SKILLBOX.PDB
